^C:\USERS\MARIE-HÉLÈNE\DOCUMENTS\IFT159\DEVOIR1\DEVOIR1\SOURCE.CPP
/c /ZI /JMC /nologo /W3 /WX- /diagnostics:column /sdl /Od /Oy- /D _MBCS /Gm- /EHsc /RTC1 /MDd /GS /fp:precise /permissive- /Zc:wchar_t /Zc:forScope /Zc:inline /Fo"DEBUG\\" /Fd"DEBUG\VC142.PDB" /Gd /TP /analyze- /FC C:\USERS\MARIE-HÉLÈNE\DOCUMENTS\IFT159\DEVOIR1\DEVOIR1\SOURCE.CPP
^C:\USERS\MARIE-HÉLÈNE\DOCUMENTS\IFT159\DEVOIR1\DEVOIR1\DEVOIR1.CPP
/c /ZI /JMC /nologo /W3 /WX- /diagnostics:column /sdl /Od /Oy- /D _MBCS /Gm- /EHsc /RTC1 /MDd /GS /fp:precise /permissive- /Zc:wchar_t /Zc:forScope /Zc:inline /Fo"DEBUG\\" /Fd"DEBUG\VC142.PDB" /Gd /TP /analyze- /FC C:\USERS\MARIE-HÉLÈNE\DOCUMENTS\IFT159\DEVOIR1\DEVOIR1\DEVOIR1.CPP
^C:\USERS\MARIE-HÉLÈNE\DOCUMENTS\IFT159\DEVOIR1\DEVOIR1\MAIN.CPP
/c /ZI /JMC /nologo /W3 /WX- /diagnostics:column /sdl /Od /Oy- /D _MBCS /Gm- /EHsc /RTC1 /MDd /GS /fp:precise /permissive- /Zc:wchar_t /Zc:forScope /Zc:inline /Fo"DEBUG\\" /Fd"DEBUG\VC142.PDB" /Gd /TP /analyze- /FC C:\USERS\MARIE-HÉLÈNE\DOCUMENTS\IFT159\DEVOIR1\DEVOIR1\MAIN.CPP
